R workshop
…
---

### Example

```r
fake_snack_df %>%
  select(Lopnr, Date_wave1)
```

```
# A tibble: 3,365 x 2
   Lopnr Date_wave1
   <int> <date>    
 1  1284 1848-01-16
 2  2013 1788-07-16
 3  1618 1833-09-17
 4  3190 1803-04-08
 5  1103 1705-06-10
 6  2193 1733-11-07
 7  2555 1792-08-31
 8   254 1768-04-16
 9  2250 1810-02-09
10  2258 1722-08-02
# ... with 3,355 more rows
```
…
### Example
Let's give a first try:

```r
fake_snack_df %>%
  select(Lopnr, contains("Date")) %>%
  pivot_longer(
    cols = contains("Date"),
    names_to = "wave", values_to = "date",
    names_prefix = "Date"
  )
```

```
# A tibble: 20,190 x 3
   Lopnr wave   date      
   <int> <chr>  <date>    
 1  1284 _wave1 1848-01-16
 2  1284 _wave2 1703-06-26
 3  1284 _wave3 1807-08-10
 4  1284 _wave4 1764-12-13
 5  1284 _wave5 1774-04-04
 6  1284 _wave6 1739-04-12
 7  2013 _wave1 1788-07-16
 8  2013 _wave2 1785-09-24
 9  2013 _wave3 1811-08-26
10  2013 _wave4 1812-05-24
# ... with 20,180 more rows
```
…
--

```r
fake_snack_df %>%
  select(Lopnr, contains("dementia")) %>%
  pivot_longer(
    cols = contains("dementia"),
    names_to = "wave", names_prefix = "dementia",
    values_to = "dementia"
  )
```

```
# A tibble: 20,190 x 3
   Lopnr wave   dementia
   <int> <chr>     <dbl>
 1  1284 _wave1   -0.246
 2  1284 _wave2   -0.704
 3  1284 _wave3   -0.508
 4  1284 _wave4   -1.48 
 5  1284 _wave5   -0.402
 6  1284 _wave6    1.37 
 7  2013 _wave1    0.377
 8  2013 _wave2    0.832
 9  2013 _wave3   -0.824
10  2013 _wave4    2.37 
# ... with 20,180 more rows
```
…
```
Warning: Use of bare predicate functions was deprecated in tidyselect 1.1.0.
i Please use wrap predicates in `where()` instead.
  # Was:
  data %>% select(is.numeric)

  # Now:
  data %>% select(where(is.numeric))
```

```
# A tibble: 3,365 x 15
   Lopnr   sex Date_wave1 education Date_wave2 Date_wave3 Date_wave4 Date_wave5
   <dbl> <dbl> <date>         <dbl> <date>     <date>     <date>     <date>    
 1  1284 -1.62 1848-01-16     -1    1703-06-26 1807-08-10 1764-12-13 1774-04-04
 2  2013  0.38 1788-07-16      0.88 1785-09-24 1811-08-26 1812-05-24 1777-11-08
 3  1618 -0.36 1833-09-17      0.08 1792-10-19 1781-01-06 1746-09-20 1804-04-12
 4  3190  0.68 1803-04-08      0.09 1829-04-27 1744-02-04 1846-08-24 1766-03-26
 5  1103  0.52 1705-06-10      1.37 1734-12-24 1746-03-13 1829-11-30 1711-02-15
 6  2193  0.31 1733-11-07      0.77 1794-06-13 1738-06-02 1846-12-28 1750-10-02
 7  2555  1.17 1792-08-31      0.56 1727-07-07 1848-10-20 1807-12-03 1819-11-05
 8   254  1.07 1768-04-16     -0.16 1704-10-02 1773-10-25 1804-09-12 1722-06-18
 9  2250  0.24 1810-02-09     -0.29 1848-05-22 1812-01-08 1730-03-15 1719-02-22
10  2258 -0.06 1722-08-02      1.84 1786-01-17 1845-01-13 1762-03-06 1778-01-19
# ... with 3,355 more rows, and 7 more variables: Date_wave6 <date>,
#   dementia_wave1 <dbl>, dementia_wave2 <dbl>, dementia_wave3 <dbl>,
#   dementia_wave4 <dbl>, dementia_wave5 <dbl>, dementia_wave6 <dbl>
```
…
--

- For example, if we want to bin the education variable.

```r
fake_snack_df %>%
  transmute(education, edu_bin = cut(education,
    breaks = 3,
    labels = c("low", "medium", "high")
  ))
```

```
# A tibble: 3,365 x 2
   education edu_bin
       <dbl> <fct>  
 1   -1.00   medium 
 2    0.883  medium 
 3    0.0753 medium 
 4    0.0943 medium 
 5    1.37   high   
 6    0.771  medium 
 7    0.562  medium 
 8   -0.159  medium 
 9   -0.289  medium 
10    1.84   high   
# ... with 3,355 more rows
```
…
