R workshop
…
---

### Example

```r
fake_data %>%
  select(Lopnr, Date_wave1)
```

```
# A tibble: 3,000 × 2
   Lopnr Date_wave1
   <dbl> <date>    
 1     1 2001-06-11
 2     2 2002-04-08
 3     3 2001-09-12
 4     4 2001-06-13
 5     5 2001-02-12
 6     6 2001-07-05
 7     7 2001-12-28
 8     8 2002-09-17
 9     9 2001-09-14
10    10 2001-09-21
# … with 2,990 more rows
```
…
### Example
Let's give a first try:

```r
fake_data %>%
  select(Lopnr, contains("Date")) %>%
  pivot_longer(
    cols = contains("Date"),
    names_to = "wave", values_to = "date",
    names_prefix = "Date"
  )
```

```
# A tibble: 18,000 × 3
   Lopnr wave   date      
   <dbl> <chr>  <date>    
 1     1 _wave1 2001-06-11
 2     1 _wave2 2003-06-03
 3     1 _wave3 2005-05-27
 4     1 _wave4 2007-04-22
 5     1 _wave5 2009-04-10
 6     1 _wave6 2011-04-01
 7     2 _wave1 2002-04-08
 8     2 _wave2 2004-03-07
 9     2 _wave3 2006-02-08
10     2 _wave4 2008-02-19
# … with 17,990 more rows
```
…
--

```r
fake_data %>%
  select(Lopnr, contains("dementia")) %>%
  pivot_longer(
    cols = contains("dementia"),
    names_to = "wave", names_prefix = "dementia",
    values_to = "dementia"
  )
```

```
# A tibble: 18,000 × 3
   Lopnr wave   dementia
   <dbl> <chr>     <dbl>
 1     1 _wave1        0
 2     1 _wave2        0
 3     1 _wave3        0
 4     1 _wave4        0
 5     1 _wave5        0
 6     1 _wave6        0
 7     2 _wave1        0
 8     2 _wave2        0
 9     2 _wave3        0
10     2 _wave4        0
# … with 17,990 more rows
```
…
---

The result looks terrible, so we have to fix it by transforming it to be tibble:

```r
label_df <- tibble::rownames_to_column(
  as.data.frame(label_char),
  "variable"
)
label_df <- tibble::as_tibble(label_df)
label_df
```

```
# A tibble: 28 × 2
   variable       label_char                 
   <chr>          <chr>                      
 1 Lopnr          ID                         
 2 Date_wave1     date examination 2011-2012 
 3 age_wave1      age at visit 2011-2012     
 4 mmse_wave1     mmse at visit 2011-2012    
 5 dementia_wave1 dementia at visit 2011-2012
 6 Date_wave2     date examination 2011-2012 
 7 age_wave2      age at visit 2011-2012     
 8 mmse_wave2     mmse at visit 2011-2012    
 9 dementia_wave2 dementia at visit 2011-2012
10 Date_wave3     date examination 2011-2012 
# … with 18 more rows
```
…
---

- filter the variable contains 'wave'

```r
label_df %>%
  filter(grepl("wave", variable))
```

```
# A tibble: 24 × 2
   variable       label_char                 
   <chr>          <chr>                      
 1 Date_wave1     date examination 2011-2012 
 2 age_wave1      age at visit 2011-2012     
 3 mmse_wave1     mmse at visit 2011-2012    
 4 dementia_wave1 dementia at visit 2011-2012
 5 Date_wave2     date examination 2011-2012 
 6 age_wave2      age at visit 2011-2012     
 7 mmse_wave2     mmse at visit 2011-2012    
 8 dementia_wave2 dementia at visit 2011-2012
 9 Date_wave3     date examination 2011-2012 
10 age_wave3      age at visit 2011-2012     
# … with 14 more rows
```
…
- When you apply it with `mutate()` function, you can do many manipulations. E.g. round the digits of numeric columns.

--

```r
fake_data %>%
  mutate(across(
    where(is.numeric),
    ~ round(., digits = 2)
  ))
```

```
# A tibble: 3,000 × 28
   Lopnr Date_wave1 age_wave1 mmse_…¹ demen…² Date_wave2 age_w…³ mmse_…⁴ demen…⁵
   <dbl> <date>         <dbl>   <dbl>   <dbl> <date>       <dbl>   <dbl>   <dbl>
 1     1 2001-06-11      77.6      29       0 2003-06-03    79.5      29       0
 2     2 2002-04-08      72.6      18       0 2004-03-07    74.5      15       0
 3     3 2001-09-12      80.0      22       0 NA            NA        NA      NA
 4     4 2001-06-13      79.9      26       0 2003-05-12    81.8      24       0
 5     5 2001-02-12      82.6      NA       0 2003-04-20    84.8      22       0
 6     6 2001-07-05      79.3      25       0 2003-07-20    81.4      24       0
 7     7 2001-12-28      86.4      NA       0 2003-12-11    88.4      NA       1
 8     8 2002-09-17      77.1      26       0 2004-09-01    79.0      25       0
 9     9 2001-09-14      79.8      30       0 2003-08-30    81.8      30       0
10    10 2001-09-21      69.0      29       0 2003-09-27    71.0      29       0
# … with 2,990 more rows, 19 more variables: Date_wave3 <date>,
#   age_wave3 <dbl>, mmse_wave3 <dbl>, dementia_wave3 <dbl>, Date_wave4 <date>,
#   age_wave4 <dbl>, mmse_wave4 <dbl>, dementia_wave4 <dbl>, Date_wave5 <date>,
#   age_wave5 <dbl>, mmse_wave5 <dbl>, dementia_wave5 <dbl>, Date_wave6 <date>,
#   age_wave6 <dbl>, mmse_wave6 <dbl>, dementia_wave6 <dbl>, age_base <dbl>,
#   sex <dbl>, education <dbl>, and abbreviated variable names ¹​mmse_wave1,
#   ²​dementia_wave1, ³​age_wave2, ⁴​mmse_wave2, ⁵​dementia_wave2
```
…
```r
fake_data %>%
  transmute(mmse_wave1,
    mmse_wave1_bin = case_when(
      between(mmse_wave1, 0, 9) ~ "Severe dementia",
      between(mmse_wave1, 10, 18) ~ "Moderate dementia",
      between(mmse_wave1, 19, 23) ~ "Mild dementia",
      mmse_wave1 >= 24 ~ "Mild dementia",
      TRUE ~ NA_character_
    )
  )
```

```
# A tibble: 3,000 × 2
   mmse_wave1 mmse_wave1_bin   
        <dbl> <chr>            
 1         29 Mild dementia    
 2         18 Moderate dementia
 3         22 Mild dementia    
 4         26 Mild dementia    
 5         NA <NA>             
 6         25 Mild dementia    
 7         NA <NA>             
 8         26 Mild dementia    
 9         30 Mild dementia    
10         29 Mild dementia    
# … with 2,990 more rows
```
…
